…
```r
percent_residual_data #calling the dataset
```

```
## # A tibble: 36 × 4
##    sample_id  sample_year parameter measure
##    <chr>            <dbl> <chr>       <dbl>
##  1 B11-I 0-2         2001 nC18          0  
##  2 B11-I 0-2         2001 phytane       2  
##  3 B11-I 0-2         2001 nC30          6.6
##  4 B11-I 5-10        2001 nC18         79.6
##  5 B11-I 5-10        2001 phytane     100  
##  6 B11-I 5-10        2001 nC30         87.5
##  7 T1 0-2            2001 nC18         90.5
##  8 T1 0-2            2001 phytane     100  
##  9 T1 0-2            2001 nC30        100  
## 10 T2 0-2            2001 nC18        100  
## # … with 26 more rows
```
…
