…
```r
alkylcycloalkane_data
```

```
## # A tibble: 288 × 6
##    site    sample_type sample_id sample_depth parameter               measure
##    <chr>   <chr>       <chr>     <chr>        <chr>                     <dbl>
##  1 Bay 102 control     N12       surface      n_hexylcyclohexane        0    
##  2 Bay 102 control     N12       surface      n_heptylcyclohexane       5.00 
##  3 Bay 102 control     N12       surface      n_octylcyclohexane       19.3  
##  4 Bay 102 control     N12       surface      n_nonylcyclohexane       22.8  
##  5 Bay 102 control     N12       surface      n_decylcyclohexane       43.7  
##  6 Bay 102 control     N12       surface      n_undecylcyclohexane      5.75 
##  7 Bay 102 control     N12       surface      n_dodecylcyclohexane      3.06 
##  8 Bay 102 control     N12       surface      n_tridecylcyclohexane     0.360
##  9 Bay 102 control     N12       surface      n_tetradecylcyclohexane   0    
## 10 Bay 102 control     N12       subsurface   n_hexylcyclohexane        0    
## # … with 278 more rows
```
…
