…
```r
control_data #calling the dataset
```

```
## # A tibble: 54 × 3
##    sample_id       parameter measure
##    <chr>           <chr>       <dbl>
##  1 surface control C11          0   
##  2 surface control C12          1.65
##  3 surface control C13          1.54
##  4 surface control C14         15.3 
##  5 surface control C15         15.7 
##  6 surface control C16         13.8 
##  7 surface control Pristane     6.22
##  8 surface control C17          7.74
##  9 surface control Phytane      4.82
## 10 surface control C18          2.27
## # … with 44 more rows
```
…
