…
```r
alkylbenzene_data #calling the dataset
```

```
## # A tibble: 512 × 6
##    site    sample_type sample_id sample_depth parameter         measure
##    <chr>   <chr>       <chr>     <chr>        <chr>               <dbl>
##  1 Bay 102 control     N12       surface      n_butylbenzene       1.31
##  2 Bay 102 control     N12       surface      n_pentylbenzene      1.74
##  3 Bay 102 control     N12       surface      n_hexylbenzene       1.83
##  4 Bay 102 control     N12       surface      n_heptylbenzene      2.58
##  5 Bay 102 control     N12       surface      n_octylbenzene       6.60
##  6 Bay 102 control     N12       surface      n_nonylbenzene      17.5 
##  7 Bay 102 control     N12       surface      n_decylbenzene      22.9 
##  8 Bay 102 control     N12       surface      n_undecylbenzene    22.0 
##  9 Bay 102 control     N12       surface      n_dodecylbenzene    10.9 
## 10 Bay 102 control     N12       surface      n_tridecylbenzene    1.39
## # … with 502 more rows
```
…
```r
alkylbenzene_controls #calling the dataset
```

```
## # A tibble: 32 × 3
##    sample_id       parameter         measure
##    <chr>           <chr>               <dbl>
##  1 surface control n_butylbenzene      1.54 
##  2 surface control n_pentylbenzene     0.768
##  3 surface control n_hexylbenzene      0.229
##  4 surface control n_heptylbenzene     1.82 
##  5 surface control n_octylbenzene      6.81 
##  6 surface control n_nonylbenzene     15.7  
##  7 surface control n_decylbenzene     19.7  
##  8 surface control n_undecylbenzene   22.9  
##  9 surface control n_dodecylbenzene   15.2  
## 10 surface control n_tridecylbenzene   0.282
## # … with 22 more rows
```
…
